[
{
    "pk": 1, 
    "model": "contenttypes.contenttype", 
    "fields": {
        "model": "permission", 
        "name": "permission", 
        "app_label": "auth"
    }
},
{
    "pk": 2, 
    "model": "contenttypes.contenttype", 
    "fields": {
        "model": "group", 
        "name": "group", 
        "app_label": "auth"
    }
},
{
    "pk": 3, 
    "model": "contenttypes.contenttype", 
    "fields": {
        "model": "user", 
        "name": "user", 
        "app_label": "auth"
    }
},
{
    "pk": 4, 
    "model": "contenttypes.contenttype", 
    "fields": {
        "model": "contenttype", 
        "name": "content type", 
        "app_label": "contenttypes"
    }
},
{
    "pk": 5, 
    "model": "contenttypes.contenttype", 
    "fields": {
        "model": "session", 
        "name": "session", 
        "app_label": "sessions"
    }
},
{
    "pk": 6, 
    "model": "contenttypes.contenttype", 
    "fields": {
        "model": "site", 
        "name": "site", 
        "app_label": "sites"
    }
},
{
    "pk": 7, 
    "model": "contenttypes.contenttype", 
    "fields": {
        "model": "comment", 
        "name": "comment", 
        "app_label": "comments"
    }
},
{
    "pk": 8, 
    "model": "contenttypes.contenttype", 
    "fields": {
        "model": "commentflag", 
        "name": "comment flag", 
        "app_label": "comments"
    }
},
{
    "pk": 9, 
    "model": "contenttypes.contenttype", 
    "fields": {
        "model": "logentry", 
        "name": "log entry", 
        "app_label": "admin"
    }
},
{
    "pk": 10, 
    "model": "contenttypes.contenttype", 
    "fields": {
        "model": "photo", 
        "name": "Photo", 
        "app_label": "photo"
    }
},
{
    "pk": 11, 
    "model": "contenttypes.contenttype", 
    "fields": {
        "model": "rating", 
        "name": "Rating", 
        "app_label": "photo"
    }
},
{
    "pk": "hnbbgytkwi5g5wkp4fkcxyuokf2e1yko", 
    "model": "sessions.session", 
    "fields": {
        "expire_date": "2013-05-21T08:24:25.813Z", 
        "session_data": "MGU3YmVjMjUzZDFhMmE2M2M0YjcwYmY5MmM3YzJlNDExN2MwN2Q4MTqAAn1xAShVEl9hdXRoX3VzZXJfYmFja2VuZHECVSlkamFuZ28uY29udHJpYi5hdXRoLmJhY2tlbmRzLk1vZGVsQmFja2VuZHEDVQ1fYXV0aF91c2VyX2lkcQRLAXUu"
    }
},
{
    "pk": 1, 
    "model": "sites.site", 
    "fields": {
        "domain": "example.com", 
        "name": "example.com"
    }
},
{
    "pk": 1, 
    "model": "auth.permission", 
    "fields": {
        "codename": "add_permission", 
        "name": "Can add permission", 
        "content_type": 1
    }
},
{
    "pk": 2, 
    "model": "auth.permission", 
    "fields": {
        "codename": "change_permission", 
        "name": "Can change permission", 
        "content_type": 1
    }
},
{
    "pk": 3, 
    "model": "auth.permission", 
    "fields": {
        "codename": "delete_permission", 
        "name": "Can delete permission", 
        "content_type": 1
    }
},
{
    "pk": 4, 
    "model": "auth.permission", 
    "fields": {
        "codename": "add_group", 
        "name": "Can add group", 
        "content_type": 2
    }
},
{
    "pk": 5, 
    "model": "auth.permission", 
    "fields": {
        "codename": "change_group", 
        "name": "Can change group", 
        "content_type": 2
    }
},
{
    "pk": 6, 
    "model": "auth.permission", 
    "fields": {
        "codename": "delete_group", 
        "name": "Can delete group", 
        "content_type": 2
    }
},
{
    "pk": 7, 
    "model": "auth.permission", 
    "fields": {
        "codename": "add_user", 
        "name": "Can add user", 
        "content_type": 3
    }
},
{
    "pk": 8, 
    "model": "auth.permission", 
    "fields": {
        "codename": "change_user", 
        "name": "Can change user", 
        "content_type": 3
    }
},
{
    "pk": 9, 
    "model": "auth.permission", 
    "fields": {
        "codename": "delete_user", 
        "name": "Can delete user", 
        "content_type": 3
    }
},
{
    "pk": 10, 
    "model": "auth.permission", 
    "fields": {
        "codename": "add_contenttype", 
        "name": "Can add content type", 
        "content_type": 4
    }
},
{
    "pk": 11, 
    "model": "auth.permission", 
    "fields": {
        "codename": "change_contenttype", 
        "name": "Can change content type", 
        "content_type": 4
    }
},
{
    "pk": 12, 
    "model": "auth.permission", 
    "fields": {
        "codename": "delete_contenttype", 
        "name": "Can delete content type", 
        "content_type": 4
    }
},
{
    "pk": 13, 
    "model": "auth.permission", 
    "fields": {
        "codename": "add_session", 
        "name": "Can add session", 
        "content_type": 5
    }
},
{
    "pk": 14, 
    "model": "auth.permission", 
    "fields": {
        "codename": "change_session", 
        "name": "Can change session", 
        "content_type": 5
    }
},
{
    "pk": 15, 
    "model": "auth.permission", 
    "fields": {
        "codename": "delete_session", 
        "name": "Can delete session", 
        "content_type": 5
    }
},
{
    "pk": 16, 
    "model": "auth.permission", 
    "fields": {
        "codename": "add_site", 
        "name": "Can add site", 
        "content_type": 6
    }
},
{
    "pk": 17, 
    "model": "auth.permission", 
    "fields": {
        "codename": "change_site", 
        "name": "Can change site", 
        "content_type": 6
    }
},
{
    "pk": 18, 
    "model": "auth.permission", 
    "fields": {
        "codename": "delete_site", 
        "name": "Can delete site", 
        "content_type": 6
    }
},
{
    "pk": 19, 
    "model": "auth.permission", 
    "fields": {
        "codename": "add_comment", 
        "name": "Can add comment", 
        "content_type": 7
    }
},
{
    "pk": 20, 
    "model": "auth.permission", 
    "fields": {
        "codename": "change_comment", 
        "name": "Can change comment", 
        "content_type": 7
    }
},
{
    "pk": 21, 
    "model": "auth.permission", 
    "fields": {
        "codename": "delete_comment", 
        "name": "Can delete comment", 
        "content_type": 7
    }
},
{
    "pk": 22, 
    "model": "auth.permission", 
    "fields": {
        "codename": "can_moderate", 
        "name": "Can moderate comments", 
        "content_type": 7
    }
},
{
    "pk": 23, 
    "model": "auth.permission", 
    "fields": {
        "codename": "add_commentflag", 
        "name": "Can add comment flag", 
        "content_type": 8
    }
},
{
    "pk": 24, 
    "model": "auth.permission", 
    "fields": {
        "codename": "change_commentflag", 
        "name": "Can change comment flag", 
        "content_type": 8
    }
},
{
    "pk": 25, 
    "model": "auth.permission", 
    "fields": {
        "codename": "delete_commentflag", 
        "name": "Can delete comment flag", 
        "content_type": 8
    }
},
{
    "pk": 26, 
    "model": "auth.permission", 
    "fields": {
        "codename": "add_logentry", 
        "name": "Can add log entry", 
        "content_type": 9
    }
},
{
    "pk": 27, 
    "model": "auth.permission", 
    "fields": {
        "codename": "change_logentry", 
        "name": "Can change log entry", 
        "content_type": 9
    }
},
{
    "pk": 28, 
    "model": "auth.permission", 
    "fields": {
        "codename": "delete_logentry", 
        "name": "Can delete log entry", 
        "content_type": 9
    }
},
{
    "pk": 29, 
    "model": "auth.permission", 
    "fields": {
        "codename": "add_photo", 
        "name": "Can add Photo", 
        "content_type": 10
    }
},
{
    "pk": 30, 
    "model": "auth.permission", 
    "fields": {
        "codename": "change_photo", 
        "name": "Can change Photo", 
        "content_type": 10
    }
},
{
    "pk": 31, 
    "model": "auth.permission", 
    "fields": {
        "codename": "delete_photo", 
        "name": "Can delete Photo", 
        "content_type": 10
    }
},
{
    "pk": 32, 
    "model": "auth.permission", 
    "fields": {
        "codename": "add_rating", 
        "name": "Can add Rating", 
        "content_type": 11
    }
},
{
    "pk": 33, 
    "model": "auth.permission", 
    "fields": {
        "codename": "change_rating", 
        "name": "Can change Rating", 
        "content_type": 11
    }
},
{
    "pk": 34, 
    "model": "auth.permission", 
    "fields": {
        "codename": "delete_rating", 
        "name": "Can delete Rating", 
        "content_type": 11
    }
},
{
    "pk": 1, 
    "model": "auth.user", 
    "fields": {
        "username": "chubz", 
        "first_name": "", 
        "last_name": "", 
        "is_active": true, 
        "is_superuser": true, 
        "is_staff": true, 
        "last_login": "2013-05-07T08:24:25.797Z", 
        "groups": [], 
        "user_permissions": [], 
        "password": "pbkdf2_sha256$10000$CQxdLGJzbn9W$aVzryaOc24n2ZWd0b64KCsa23bk3S0Uwep/nrCPAtT4=", 
        "email": "chubzor@gmail.com", 
        "date_joined": "2013-05-07T08:20:32.897Z"
    }
},
{
    "pk": 1, 
    "model": "comments.comment", 
    "fields": {
        "comment": "holyshitballz", 
        "user_url": "http://www.holy.sh/", 
        "submit_date": "2013-05-07T08:29:20.892Z", 
        "ip_address": "127.0.0.1", 
        "object_pk": "3", 
        "site": 1, 
        "is_removed": false, 
        "user": 1, 
        "content_type": 10, 
        "is_public": true, 
        "user_name": "chubz", 
        "user_email": "chubzor@gmail.com"
    }
},
{
    "pk": 2, 
    "model": "comments.comment", 
    "fields": {
        "comment": "I don't like this !", 
        "user_url": "http://www.mysite.com/", 
        "submit_date": "2013-05-07T08:32:11.381Z", 
        "ip_address": "127.0.0.1", 
        "object_pk": "2", 
        "site": 1, 
        "is_removed": false, 
        "user": 1, 
        "content_type": 10, 
        "is_public": true, 
        "user_name": "chubz", 
        "user_email": "chubzor@gmail.com"
    }
},
{
    "pk": 3, 
    "model": "comments.comment", 
    "fields": {
        "comment": "U sure?", 
        "user_url": "http://www.gblt-community.com/", 
        "submit_date": "2013-05-07T08:35:01.330Z", 
        "ip_address": "127.0.0.1", 
        "object_pk": "1", 
        "site": 1, 
        "is_removed": false, 
        "user": 1, 
        "content_type": 10, 
        "is_public": true, 
        "user_name": "Elton John", 
        "user_email": "john@elton.com"
    }
},
{
    "pk": 4, 
    "model": "comments.comment", 
    "fields": {
        "comment": "Isus!!!!!!!!!", 
        "user_url": "http://www.ignore.com/", 
        "submit_date": "2013-05-07T08:36:30.929Z", 
        "ip_address": "127.0.0.1", 
        "object_pk": "4", 
        "site": 1, 
        "is_removed": false, 
        "user": 1, 
        "content_type": 10, 
        "is_public": true, 
        "user_name": "chubz", 
        "user_email": "chubzor@gmail.com"
    }
},
{
    "pk": 1, 
    "model": "photo.photo", 
    "fields": {
        "description": "imposibru", 
        "author": null, 
        "image": "images/user_anon/67la4i.jpg", 
        "pub_date": "2013-05-07T08:23:12.414Z", 
        "avg_rating": 4.4, 
        "name": "nigga!!!"
    }
},
{
    "pk": 2, 
    "model": "photo.photo", 
    "fields": {
        "description": "imagine this happening to you", 
        "author": null, 
        "image": "images/user_anon/3968.jpg", 
        "pub_date": "2013-05-07T08:24:08.120Z", 
        "avg_rating": 1.4, 
        "name": "artsy dropsy"
    }
},
{
    "pk": 3, 
    "model": "photo.photo", 
    "fields": {
        "description": "choose!!!!!", 
        "author": 1, 
        "image": "images/chubz/Password.jpg", 
        "pub_date": "2013-05-07T08:26:18.368Z", 
        "avg_rating": 3.25, 
        "name": "pwd"
    }
},
{
    "pk": 4, 
    "model": "photo.photo", 
    "fields": {
        "description": "Borislav Petrovi\u0107", 
        "author": 1, 
        "image": "images/chubz/Borko.JPG", 
        "pub_date": "2013-05-07T08:27:04.436Z", 
        "avg_rating": 2.8333333333333335, 
        "name": "Borko"
    }
},
{
    "pk": 1, 
    "model": "photo.rating", 
    "fields": {
        "rating": 2, 
        "image": 4, 
        "pub_date": "2013-05-07T08:27:33.078Z", 
        "rater": 1
    }
},
{
    "pk": 2, 
    "model": "photo.rating", 
    "fields": {
        "rating": 3, 
        "image": 4, 
        "pub_date": "2013-05-07T08:27:36.327Z", 
        "rater": 1
    }
},
{
    "pk": 3, 
    "model": "photo.rating", 
    "fields": {
        "rating": 5, 
        "image": 4, 
        "pub_date": "2013-05-07T08:27:39.040Z", 
        "rater": 1
    }
},
{
    "pk": 4, 
    "model": "photo.rating", 
    "fields": {
        "rating": 1, 
        "image": 4, 
        "pub_date": "2013-05-07T08:27:41.231Z", 
        "rater": 1
    }
},
{
    "pk": 5, 
    "model": "photo.rating", 
    "fields": {
        "rating": 2, 
        "image": 4, 
        "pub_date": "2013-05-07T08:27:42.959Z", 
        "rater": 1
    }
},
{
    "pk": 6, 
    "model": "photo.rating", 
    "fields": {
        "rating": 4, 
        "image": 4, 
        "pub_date": "2013-05-07T08:27:45.128Z", 
        "rater": 1
    }
},
{
    "pk": 7, 
    "model": "photo.rating", 
    "fields": {
        "rating": 3, 
        "image": 3, 
        "pub_date": "2013-05-07T08:28:50.659Z", 
        "rater": 1
    }
},
{
    "pk": 8, 
    "model": "photo.rating", 
    "fields": {
        "rating": 5, 
        "image": 3, 
        "pub_date": "2013-05-07T08:28:52.843Z", 
        "rater": 1
    }
},
{
    "pk": 9, 
    "model": "photo.rating", 
    "fields": {
        "rating": 1, 
        "image": 3, 
        "pub_date": "2013-05-07T08:28:54.804Z", 
        "rater": 1
    }
},
{
    "pk": 10, 
    "model": "photo.rating", 
    "fields": {
        "rating": 4, 
        "image": 3, 
        "pub_date": "2013-05-07T08:28:59.093Z", 
        "rater": 1
    }
},
{
    "pk": 11, 
    "model": "photo.rating", 
    "fields": {
        "rating": 2, 
        "image": 2, 
        "pub_date": "2013-05-07T08:29:44.000Z", 
        "rater": 1
    }
},
{
    "pk": 12, 
    "model": "photo.rating", 
    "fields": {
        "rating": 1, 
        "image": 2, 
        "pub_date": "2013-05-07T08:29:45.378Z", 
        "rater": 1
    }
},
{
    "pk": 13, 
    "model": "photo.rating", 
    "fields": {
        "rating": 1, 
        "image": 2, 
        "pub_date": "2013-05-07T08:29:46.838Z", 
        "rater": 1
    }
},
{
    "pk": 14, 
    "model": "photo.rating", 
    "fields": {
        "rating": 1, 
        "image": 2, 
        "pub_date": "2013-05-07T08:29:48.208Z", 
        "rater": 1
    }
},
{
    "pk": 15, 
    "model": "photo.rating", 
    "fields": {
        "rating": 2, 
        "image": 2, 
        "pub_date": "2013-05-07T08:29:52.098Z", 
        "rater": 1
    }
},
{
    "pk": 16, 
    "model": "photo.rating", 
    "fields": {
        "rating": 2, 
        "image": 1, 
        "pub_date": "2013-05-07T08:34:15.104Z", 
        "rater": 1
    }
},
{
    "pk": 17, 
    "model": "photo.rating", 
    "fields": {
        "rating": 5, 
        "image": 1, 
        "pub_date": "2013-05-07T08:34:16.764Z", 
        "rater": 1
    }
},
{
    "pk": 18, 
    "model": "photo.rating", 
    "fields": {
        "rating": 5, 
        "image": 1, 
        "pub_date": "2013-05-07T08:34:17.989Z", 
        "rater": 1
    }
},
{
    "pk": 19, 
    "model": "photo.rating", 
    "fields": {
        "rating": 5, 
        "image": 1, 
        "pub_date": "2013-05-07T08:34:19.212Z", 
        "rater": 1
    }
},
{
    "pk": 20, 
    "model": "photo.rating", 
    "fields": {
        "rating": 5, 
        "image": 1, 
        "pub_date": "2013-05-07T08:34:20.944Z", 
        "rater": 1
    }
}
]
